country_decisions = {

	endralliande_nation = {
		major = yes
		potential = {
			NOT = { has_country_flag = changed_from_colonial_nation }
			is_nomad = no
			is_random_new_world = no			
			OR = {
				is_former_colonial_nation = yes
				is_colonial_nation = yes
			}
			colonial_endralliande = {
				owned_by = ROOT
			}
			OR = {
				ai = no
				AND = {
					ai = yes
					num_of_cities = 3	
				}
			}
		}
		allow = {
			adm_tech = 10
			is_former_colonial_nation = yes
			is_free_or_tributary_trigger = yes
			is_at_war = no
			capital_scope = {
				colonial_region = colonial_endralliande
				is_core = ROOT
			}
			NOT = { exists = G10 }
		}
		effect = {
			change_tag = G10
			remove_non_electors_emperors_from_empire_effect = yes
			if = {
				limit = {
					NOT = { government_rank = 2 }
				}
				set_government_rank = 2
			}
			colonial_endralliande = {
				limit = {
					NOT = { owned_by = ROOT }
				}
				add_permanent_claim = G10
			}
			add_country_modifier = {
				name = "centralization_modifier"
				duration = 7300
			}
			add_prestige = 25
			set_country_flag = changed_from_colonial_nation
		}
		ai_will_do = {
			factor = 1
		}
	}
	
	trollsbay_nation = {
		major = yes
		potential = {
			NOT = { has_country_flag = changed_from_colonial_nation }
			is_nomad = no
			is_random_new_world = no			
			OR = {
				is_former_colonial_nation = yes
				is_colonial_nation = yes
			}
			colonial_noruin = {
				owned_by = ROOT
			}
			OR = {
				ai = no
				AND = {
					ai = yes
					num_of_cities = 3	
				}
			}
		}
		allow = {
			adm_tech = 10
			is_former_colonial_nation = yes
			is_free_or_tributary_trigger = yes
			is_at_war = no
			capital_scope = {
				colonial_region = colonial_noruin
				region = trollsbay_region
				is_core = ROOT
			}
			NOT = { exists = G11 }
		}
		effect = {
			change_tag = G11
			remove_non_electors_emperors_from_empire_effect = yes
			if = {
				limit = {
					NOT = { government_rank = 2 }
				}
				set_government_rank = 2
			}
			colonial_noruin = {
				limit = {
					NOT = { owned_by = ROOT }
				}
				add_permanent_claim = G11
			}
			add_country_modifier = {
				name = "centralization_modifier"
				duration = 7300
			}
			add_prestige = 25
			set_country_flag = changed_from_colonial_nation
		}
		ai_will_do = {
			factor = 1
		}
	}
	
	bloodgroves_nation = {
		major = yes
		potential = {
			NOT = { has_country_flag = changed_from_colonial_nation }
			is_nomad = no
			is_random_new_world = no			
			OR = {
				is_former_colonial_nation = yes
				is_colonial_nation = yes
			}
			colonial_noruin = {
				owned_by = ROOT
			}
			OR = {
				ai = no
				AND = {
					ai = yes
					num_of_cities = 3	
				}
			}
		}
		allow = {
			adm_tech = 10
			is_former_colonial_nation = yes
			is_free_or_tributary_trigger = yes
			is_at_war = no
			capital_scope = {
				colonial_region = colonial_noruin
				region = bloodgroves_region
				is_core = ROOT
			}
			NOT = { exists = G12 }
		}
		effect = {
			change_tag = G12
			remove_non_electors_emperors_from_empire_effect = yes
			if = {
				limit = {
					NOT = { government_rank = 2 }
				}
				set_government_rank = 2
			}
			colonial_noruin = {
				limit = {
					NOT = { owned_by = ROOT }
				}
				add_permanent_claim = G12
			}
			add_country_modifier = {
				name = "centralization_modifier"
				duration = 7300
			}
			add_prestige = 25
			set_country_flag = changed_from_colonial_nation
		}
		ai_will_do = {
			factor = 1
		}
	}
	
	cheshoshmar_nation = {
		major = yes
		potential = {
			NOT = { has_country_flag = changed_from_colonial_nation }
			is_nomad = no
			is_random_new_world = no			
			OR = {
				is_former_colonial_nation = yes
				is_colonial_nation = yes
			}
			colonial_noruin = {
				owned_by = ROOT
			}
			OR = {
				ai = no
				AND = {
					ai = yes
					num_of_cities = 3	
				}
			}
		}
		allow = {
			adm_tech = 10
			is_former_colonial_nation = yes
			is_free_or_tributary_trigger = yes
			is_at_war = no
			capital_scope = {
				colonial_region = colonial_noruin
				region = reapers_coast_region
				is_core = ROOT
			}
			NOT = { exists = G13 }
		}
		effect = {
			change_tag = G13
			remove_non_electors_emperors_from_empire_effect = yes
			if = {
				limit = {
					NOT = { government_rank = 2 }
				}
				set_government_rank = 2
			}
			colonial_noruin = {
				limit = {
					NOT = { owned_by = ROOT }
				}
				add_permanent_claim = G13
			}
			add_country_modifier = {
				name = "centralization_modifier"
				duration = 7300
			}
			add_prestige = 25
			set_country_flag = changed_from_colonial_nation
		}
		ai_will_do = {
			factor = 1
		}
	}
	
	soruin_nation = {
		major = yes
		potential = {
			NOT = { has_country_flag = changed_from_colonial_nation }
			is_nomad = no
			is_random_new_world = no			
			OR = {
				is_former_colonial_nation = yes
				is_colonial_nation = yes
			}
			colonial_noruin = {
				owned_by = ROOT
			}
			OR = {
				ai = no
				AND = {
					ai = yes
					num_of_cities = 3	
				}
			}
		}
		allow = {
			adm_tech = 10
			is_former_colonial_nation = yes
			is_free_or_tributary_trigger = yes
			is_at_war = no
			capital_scope = {
				colonial_region = colonial_soruin
				is_core = ROOT
			}
			NOT = { exists = G14 }
		}
		effect = {
			change_tag = G14
			remove_non_electors_emperors_from_empire_effect = yes
			if = {
				limit = {
					NOT = { government_rank = 2 }
				}
				set_government_rank = 2
			}
			colonial_noruin = {
				limit = {
					NOT = { owned_by = ROOT }
				}
				add_permanent_claim = G14
			}
			add_country_modifier = {
				name = "centralization_modifier"
				duration = 7300
			}
			add_prestige = 25
			set_country_flag = changed_from_colonial_nation
		}
		ai_will_do = {
			factor = 1
		}
	}
	
}
